{"city" : ["New York City, NY", 
    "Los Angeles, CA", 
    "Chicago, IL",
    "Houston, TX",
    "Phoenix, AZ",
    "Philadelphia, PA",
    "San Antonio, TX",
    "San Diego, CA",
    "Dallas, TX",
    "San Jose, CA",
    "Austin, TX",
    "Fort Worth, TX",
    "Columbus, OH",
    "Charlotte, NC",
    "San Francisco, CA",
    "Indianapolis, IN",
    "Seattle, WA",
    "Denver, CO",
    "Boston, MA",
    "El Paso, TX",
    "Nashville, TN",
    "Detroit, MI",
    "Oklahoma City, OK",
    "Portland, OR",
    "Las Vegas, NV",
    "Memphis, TN",
    "Louisville, KY",
    "Baltimore, MD",
    "Milwaukee, WI",
    "Tucson, AZ",
    "Fresno, CA",
    "Sacramento, CA",
    "Atlanta, GA",
    "Kansas City, MO",
    "Colorado Springs, CO",
    "Raleigh, NC",
    "Miami, FL",
    "Long Beach, CA",
    "Oakland, CA",
    "Minneapolis, MN",
    "Arlington, TX",
    "Anaheim, CA",
    "Anchorage, AK",
    "Aurora, CO",
    "Bakersfield, CA",
    "Baton Rouge, LA",
    "Brookhaven, NY",
    "Chandler, AZ",
    "Cleveland, OH",
    "Corpus Christi, TX",
    "Des Moines, IA",
    "Fayetteville, NC",
    "Gilbert, AZ",
    "Hialeah, FL",
    "Honolulu, HI",
    "Ironville, KY",
    "Irvine, CA",
    "Jacksonville, FL",
    "Jamaica, NY",
    "Jersey City, NJ",
    "Lexington, KY",
    "New Orleans, LA",
    "Newark, NJ",
    "Norfolk, VA",
    "Orlando, FL",
    "Pittsburgh, PA",
    "Riverside, CA",
    "Santa Ana, CA",
    "Stockton, CA",
    "Wichita, KS",
    "Yonkers, NY",
    "Worcester, MA",
    "Vancouver, WA",
    "Tempe, AZ",
    "Sunnyvale, CA",
    "Springfield, MA",
    "Salt Lake City, UT",
    "Santa Rosa, CA",
    "Salinas, CA",
    "Rockford, IL",
    "Providence, RI",
    "Pomona, CA",
    "Peoria, AZ",
    "Paterson, NJ",
    "Palmdale, CA",
    "Oceanside, CA",
    "McKinney, TX",
    "Knoxville, TN",
    "Tallahassee, FL",
    "Grand Rapids, MI",
    "Hayward, CA",
    "Grand Prairie, TX",
    "Eugene, OR",
    "Escondido, CA",
    "Brownsville, TX",
    "Cape Coral, FL",
    "Carolina, PR",
    "Clarksville, TN",
    "East New York, NY",
    "Garden Grove, CA",
    "Bellevue, WA",
    "Lakewood, CO"],
"title" : ["engineer", "manager"]
}
